{
  	"name" : "ant",
  	"description" : "Role for installing Apache Ant",
  
  	"json_class" : "Chef::Role",
	"chef_type" : "role",
  
  	"default_attributes" : {
		"piston" : {
			"ant_version" : "1.9.4",
			//As chef supports only SHA256 checksum, which is not available for many binaries, we will not use checksum 
			// for verifying integrity of remote files.
			//"ant_sha512_checksum" : "426f90aa5419fe19e53ada5b18f7c010f3f45f1524f4a28a156aa6cd18e5bdee8831876f092bf3e3138ed9247e3b60a06e36b78db9561d633548e1ff9c71e351",
			"ant_download_dir" : "ant",
			"ant_install_dir" : "D:\\Tools\\ant-1.9.4"
			
		}
  	},

	"run_list": [
		"recipe[piston::ant]"
	]
}